error: unable to load metadata for "nonexistent", please file a bug to add support for this API module
 --> tests/ui/unknown.rs:3:34
  |
3 | #[query(action = "query", list = "nonexistent")]
  |                                  ^^^^^^^^^^^^^
